<svg width="50" height="50" viewBox="0 0 50 50" fill="none" xmlns="http://www.w3.org/2000/svg">
<g clip-path="url(#clip0_64_110)">
<path d="M39.5833 10.9375L24.439 26.3672L18.1289 19.9382L6.77075 31.5104" stroke="black" stroke-width="3.5" stroke-linecap="square" stroke-linejoin="round"/>
<path d="M4.6875 39.8438H42.4479" stroke="black" stroke-width="4" stroke-linecap="square" stroke-linejoin="round"/>
<path d="M32.6045 10.2236L41.7169 8.78478L40.2781 17.8972" stroke="black" stroke-width="4" stroke-linecap="square" stroke-linejoin="round"/>
</g>
<defs>
<clipPath id="clip0_64_110">
<rect width="50" height="50" fill="white"/>
</clipPath>
</defs>
</svg>
