<svg width="50" height="50" viewBox="0 0 50 50" fill="none" xmlns="http://www.w3.org/2000/svg">
<g clip-path="url(#clip0_64_98)">
<path d="M25.5208 23.2616V7.29163" stroke="black" stroke-width="3.5" stroke-linecap="square" stroke-linejoin="round"/>
<path d="M41 16L10 34" stroke="black" stroke-width="3.5" stroke-linecap="square" stroke-linejoin="round"/>
<path d="M4.26262 29.14C4.01535 27.7528 3.89397 26.8766 3.90013 25.465C3.89726 20.7184 5.29056 16.6206 7.88773 12.7452C10.4849 8.86978 14.1579 6.47891 18.3999 4.90002V21.3114L4.26262 29.14Z" stroke="black" stroke-width="3.5" stroke-linecap="round" stroke-linejoin="round"/>
<path d="M25.714 7.29163C28.8747 7.29199 31.9799 8.12566 34.7184 9.70915C37.4569 11.2926 39.7327 13.5703 41.3178 16.3141C42.9029 19.0579 43.7416 22.1714 43.7499 25.3428C43.7583 28.5142 42.936 31.6321 41.3654 34.3842C39.7948 37.1364 37.531 39.4261 34.8008 41.0241C32.0707 42.622 28.97 43.4722 25.8093 43.4893C22.6486 43.5064 19.539 42.6899 16.7918 41.1216C14.0446 39.5532 11.7564 37.2882 10.1562 34.5532" stroke="black" stroke-width="3.5" stroke-linecap="square" stroke-linejoin="round"/>
</g>
<defs>
<clipPath id="clip0_64_98">
<rect width="50" height="50" fill="white"/>
</clipPath>
</defs>
</svg>
